<?xml version="1.0" encoding="UTF-8"?>
<!-- Do not edit this file with editors other than draw.io -->
<!DOCTYPE svg PUBLIC "-//W3C//DTD SVG 1.1//EN" "http://www.w3.org/Graphics/SVG/1.1/DTD/svg11.dtd">
<svg xmlns="http://www.w3.org/2000/svg" xmlns:xlink="http://www.w3.org/1999/xlink" version="1.1" width="2762" height="1333" viewBox="-0.5 -0.5 2762 1333" content="&lt;mxfile host=&quot;app.diagrams.net&quot; modified=&quot;2024-01-28T01:48:43.080Z&quot; agent=&quot;Mozilla/5.0 (Windows NT 10.0; Win64; x64) AppleWebKit/537.36 (KHTML, like Gecko) Chrome/118.0.0.0 Safari/537.36&quot; etag=&quot;MKLBbfNgGLvkVphwtuoa&quot; version=&quot;23.0.2&quot; type=&quot;device&quot;&gt;&#10;  &lt;diagram name=&quot;Page-1&quot; id=&quot;4Jju89AdnJIlUtIOwCKH&quot;&gt;&#10;    &lt;mxGraphModel dx=&quot;2868&quot; dy=&quot;6297&quot; grid=&quot;1&quot; gridSize=&quot;5&quot; guides=&quot;1&quot; tooltips=&quot;1&quot; connect=&quot;1&quot; arrows=&quot;1&quot; fold=&quot;1&quot; page=&quot;1&quot; pageScale=&quot;1&quot; pageWidth=&quot;3300&quot; pageHeight=&quot;4681&quot; background=&quot;none&quot; math=&quot;0&quot; shadow=&quot;1&quot;&gt;&#10;      &lt;root&gt;&#10;        &lt;mxCell id=&quot;0&quot; /&gt;&#10;        &lt;mxCell id=&quot;1&quot; parent=&quot;0&quot; /&gt;&#10;        &lt;mxCell id=&quot;wGRwjBiAR4KjwbIgUj5M-16&quot; value=&quot;&quot; style=&quot;rounded=0;whiteSpace=wrap;html=1;fontSize=16;movable=0;resizable=0;rotatable=0;deletable=0;editable=0;locked=1;connectable=0;&quot; vertex=&quot;1&quot; parent=&quot;1&quot;&gt;&#10;          &lt;mxGeometry x=&quot;800&quot; y=&quot;-340&quot; width=&quot;2750&quot; height=&quot;1320&quot; as=&quot;geometry&quot; /&gt;&#10;        &lt;/mxCell&gt;&#10;        &lt;mxCell id=&quot;wGRwjBiAR4KjwbIgUj5M-2&quot; value=&quot;&quot; style=&quot;endArrow=none;html=1;rounded=0;fontSize=12;curved=1;strokeWidth=3;targetPerimeterSpacing=0;sourcePerimeterSpacing=4;&quot; edge=&quot;1&quot; parent=&quot;1&quot;&gt;&#10;          &lt;mxGeometry width=&quot;50&quot; height=&quot;50&quot; relative=&quot;1&quot; as=&quot;geometry&quot;&gt;&#10;            &lt;mxPoint x=&quot;1819.29&quot; y=&quot;690&quot; as=&quot;sourcePoint&quot; /&gt;&#10;            &lt;mxPoint x=&quot;1819.29&quot; y=&quot;-190&quot; as=&quot;targetPoint&quot; /&gt;&#10;          &lt;/mxGeometry&gt;&#10;        &lt;/mxCell&gt;&#10;        &lt;mxCell id=&quot;wGRwjBiAR4KjwbIgUj5M-3&quot; value=&quot;&quot; style=&quot;endArrow=none;html=1;rounded=0;fontSize=12;curved=1;strokeWidth=3;targetPerimeterSpacing=0;sourcePerimeterSpacing=4;&quot; edge=&quot;1&quot; parent=&quot;1&quot;&gt;&#10;          &lt;mxGeometry width=&quot;50&quot; height=&quot;50&quot; relative=&quot;1&quot; as=&quot;geometry&quot;&gt;&#10;            &lt;mxPoint x=&quot;1029.5&quot; y=&quot;680&quot; as=&quot;sourcePoint&quot; /&gt;&#10;            &lt;mxPoint x=&quot;1029.5&quot; y=&quot;270&quot; as=&quot;targetPoint&quot; /&gt;&#10;          &lt;/mxGeometry&gt;&#10;        &lt;/mxCell&gt;&#10;        &lt;mxCell id=&quot;wGRwjBiAR4KjwbIgUj5M-4&quot; value=&quot;&quot; style=&quot;endArrow=none;html=1;rounded=0;fontSize=12;strokeWidth=3;targetPerimeterSpacing=0;sourcePerimeterSpacing=4;&quot; edge=&quot;1&quot; parent=&quot;1&quot;&gt;&#10;          &lt;mxGeometry width=&quot;50&quot; height=&quot;50&quot; relative=&quot;1&quot; as=&quot;geometry&quot;&gt;&#10;            &lt;mxPoint x=&quot;1029.5&quot; y=&quot;210&quot; as=&quot;sourcePoint&quot; /&gt;&#10;            &lt;mxPoint x=&quot;1029.5&quot; y=&quot;-200&quot; as=&quot;targetPoint&quot; /&gt;&#10;          &lt;/mxGeometry&gt;&#10;        &lt;/mxCell&gt;&#10;        &lt;mxCell id=&quot;wGRwjBiAR4KjwbIgUj5M-5&quot; style=&quot;edgeStyle=none;curved=1;rounded=0;orthogonalLoop=1;jettySize=auto;html=1;fontSize=12;startSize=8;endSize=8;flowAnimation=1;strokeWidth=3;&quot; edge=&quot;1&quot; parent=&quot;1&quot; source=&quot;wGRwjBiAR4KjwbIgUj5M-6&quot;&gt;&#10;          &lt;mxGeometry relative=&quot;1&quot; as=&quot;geometry&quot;&gt;&#10;            &lt;mxPoint x=&quot;1810&quot; y=&quot;-80&quot; as=&quot;targetPoint&quot; /&gt;&#10;          &lt;/mxGeometry&gt;&#10;        &lt;/mxCell&gt;&#10;        &lt;mxCell id=&quot;wGRwjBiAR4KjwbIgUj5M-6&quot; value=&quot;&amp;amp;nbsp; &amp;amp;nbsp; &amp;amp;nbsp; &amp;lt;b&amp;gt;Branch CT&amp;lt;/b&amp;gt;&quot; style=&quot;rounded=0;whiteSpace=wrap;html=1;fontSize=16;&quot; vertex=&quot;1&quot; parent=&quot;1&quot;&gt;&#10;          &lt;mxGeometry x=&quot;950&quot; y=&quot;-120&quot; width=&quot;160&quot; height=&quot;80&quot; as=&quot;geometry&quot; /&gt;&#10;        &lt;/mxCell&gt;&#10;        &lt;mxCell id=&quot;wGRwjBiAR4KjwbIgUj5M-7&quot; value=&quot;&quot; style=&quot;verticalLabelPosition=bottom;html=1;verticalAlign=top;align=center;strokeColor=none;fillColor=#00BEF2;shape=mxgraph.azure.git_repository;fontSize=16;&quot; vertex=&quot;1&quot; parent=&quot;1&quot;&gt;&#10;          &lt;mxGeometry x=&quot;950&quot; y=&quot;-120&quot; width=&quot;50&quot; height=&quot;50&quot; as=&quot;geometry&quot; /&gt;&#10;        &lt;/mxCell&gt;&#10;        &lt;mxCell id=&quot;wGRwjBiAR4KjwbIgUj5M-8&quot; style=&quot;edgeStyle=none;curved=1;rounded=0;orthogonalLoop=1;jettySize=auto;html=1;fontSize=12;startSize=8;endSize=8;flowAnimation=1;strokeWidth=3;&quot; edge=&quot;1&quot; parent=&quot;1&quot; source=&quot;wGRwjBiAR4KjwbIgUj5M-9&quot;&gt;&#10;          &lt;mxGeometry relative=&quot;1&quot; as=&quot;geometry&quot;&gt;&#10;            &lt;mxPoint x=&quot;1800&quot; y=&quot;440&quot; as=&quot;targetPoint&quot; /&gt;&#10;          &lt;/mxGeometry&gt;&#10;        &lt;/mxCell&gt;&#10;        &lt;mxCell id=&quot;wGRwjBiAR4KjwbIgUj5M-9&quot; value=&quot;&amp;amp;nbsp; &amp;amp;nbsp; &amp;amp;nbsp; &amp;lt;b&amp;gt;Branch ADL&amp;lt;/b&amp;gt;&quot; style=&quot;rounded=0;whiteSpace=wrap;html=1;fontSize=16;&quot; vertex=&quot;1&quot; parent=&quot;1&quot;&gt;&#10;          &lt;mxGeometry x=&quot;950&quot; y=&quot;410&quot; width=&quot;160&quot; height=&quot;80&quot; as=&quot;geometry&quot; /&gt;&#10;        &lt;/mxCell&gt;&#10;        &lt;mxCell id=&quot;wGRwjBiAR4KjwbIgUj5M-10&quot; value=&quot;&quot; style=&quot;verticalLabelPosition=bottom;html=1;verticalAlign=top;align=center;strokeColor=#2D7600;fillColor=#60a917;shape=mxgraph.azure.git_repository;fontSize=16;fontColor=#ffffff;&quot; vertex=&quot;1&quot; parent=&quot;1&quot;&gt;&#10;          &lt;mxGeometry x=&quot;950&quot; y=&quot;410&quot; width=&quot;50&quot; height=&quot;50&quot; as=&quot;geometry&quot; /&gt;&#10;        &lt;/mxCell&gt;&#10;        &lt;mxCell id=&quot;wGRwjBiAR4KjwbIgUj5M-11&quot; style=&quot;edgeStyle=none;curved=1;rounded=0;orthogonalLoop=1;jettySize=auto;html=1;fontSize=12;startSize=8;endSize=8;flowAnimation=1;fillColor=#d80073;strokeColor=#A50040;strokeWidth=3;&quot; edge=&quot;1&quot; parent=&quot;1&quot; source=&quot;wGRwjBiAR4KjwbIgUj5M-12&quot;&gt;&#10;          &lt;mxGeometry relative=&quot;1&quot; as=&quot;geometry&quot;&gt;&#10;            &lt;mxPoint x=&quot;1120&quot; y=&quot;410&quot; as=&quot;targetPoint&quot; /&gt;&#10;            &lt;Array as=&quot;points&quot;&gt;&#10;              &lt;mxPoint x=&quot;1700&quot; y=&quot;260&quot; /&gt;&#10;            &lt;/Array&gt;&#10;          &lt;/mxGeometry&gt;&#10;        &lt;/mxCell&gt;&#10;        &lt;mxCell id=&quot;wGRwjBiAR4KjwbIgUj5M-12&quot; value=&quot;&amp;amp;nbsp; &amp;amp;nbsp; &amp;amp;nbsp; &amp;amp;nbsp; &amp;amp;nbsp; &amp;lt;b&amp;gt;Current release&amp;lt;/b&amp;gt;&quot; style=&quot;rounded=0;whiteSpace=wrap;html=1;fontSize=16;&quot; vertex=&quot;1&quot; parent=&quot;1&quot;&gt;&#10;          &lt;mxGeometry x=&quot;1740&quot; y=&quot;160&quot; width=&quot;170&quot; height=&quot;80&quot; as=&quot;geometry&quot; /&gt;&#10;        &lt;/mxCell&gt;&#10;        &lt;mxCell id=&quot;wGRwjBiAR4KjwbIgUj5M-13&quot; style=&quot;edgeStyle=none;curved=1;rounded=0;orthogonalLoop=1;jettySize=auto;html=1;fontSize=12;startSize=8;endSize=8;flowAnimation=1;fillColor=#d80073;strokeColor=#A50040;strokeWidth=3;&quot; edge=&quot;1&quot; parent=&quot;1&quot;&gt;&#10;          &lt;mxGeometry relative=&quot;1&quot; as=&quot;geometry&quot;&gt;&#10;            &lt;mxPoint x=&quot;1120&quot; y=&quot;-40&quot; as=&quot;targetPoint&quot; /&gt;&#10;            &lt;mxPoint x=&quot;1740&quot; y=&quot;160.0014728682171&quot; as=&quot;sourcePoint&quot; /&gt;&#10;          &lt;/mxGeometry&gt;&#10;        &lt;/mxCell&gt;&#10;        &lt;mxCell id=&quot;wGRwjBiAR4KjwbIgUj5M-14&quot; value=&quot;&quot; style=&quot;verticalLabelPosition=bottom;html=1;verticalAlign=top;align=center;strokeColor=#A50040;fillColor=#d80073;shape=mxgraph.azure.git_repository;fontSize=16;fontColor=#ffffff;&quot; vertex=&quot;1&quot; parent=&quot;1&quot;&gt;&#10;          &lt;mxGeometry x=&quot;1740&quot; y=&quot;160&quot; width=&quot;50&quot; height=&quot;50&quot; as=&quot;geometry&quot; /&gt;&#10;        &lt;/mxCell&gt;&#10;        &lt;mxCell id=&quot;wGRwjBiAR4KjwbIgUj5M-17&quot; value=&quot;&amp;lt;span style=&amp;quot;font-size: 23px;&amp;quot;&amp;gt;Pull request&amp;lt;/span&amp;gt;&quot; style=&quot;html=1;shadow=0;dashed=0;shape=mxgraph.bootstrap.rrect;rSize=5;strokeColor=#006EAF;strokeWidth=1;fillColor=#1ba1e2;fontColor=#ffffff;whiteSpace=wrap;align=left;verticalAlign=middle;spacingLeft=0;fontStyle=1;fontSize=14;spacing=5;&quot; vertex=&quot;1&quot; parent=&quot;1&quot;&gt;&#10;          &lt;mxGeometry x=&quot;1280&quot; y=&quot;-135&quot; width=&quot;145&quot; height=&quot;35&quot; as=&quot;geometry&quot; /&gt;&#10;        &lt;/mxCell&gt;&#10;        &lt;mxCell id=&quot;wGRwjBiAR4KjwbIgUj5M-18&quot; value=&quot;&amp;lt;span style=&amp;quot;font-size: 23px;&amp;quot;&amp;gt;Pull request&amp;lt;/span&amp;gt;&quot; style=&quot;html=1;shadow=0;dashed=0;shape=mxgraph.bootstrap.rrect;rSize=5;strokeColor=#2D7600;strokeWidth=1;fillColor=#60a917;fontColor=#ffffff;whiteSpace=wrap;align=left;verticalAlign=middle;spacingLeft=0;fontStyle=1;fontSize=14;spacing=5;&quot; vertex=&quot;1&quot; parent=&quot;1&quot;&gt;&#10;          &lt;mxGeometry x=&quot;1265&quot; y=&quot;465&quot; width=&quot;145&quot; height=&quot;35&quot; as=&quot;geometry&quot; /&gt;&#10;        &lt;/mxCell&gt;&#10;        &lt;mxCell id=&quot;wGRwjBiAR4KjwbIgUj5M-19&quot; value=&quot;&amp;lt;font style=&amp;quot;font-size: 21px;&amp;quot;&amp;gt;&amp;lt;b&amp;gt;git checkout -b&amp;lt;/b&amp;gt;&amp;lt;/font&amp;gt;&quot; style=&quot;html=1;shadow=0;dashed=0;shape=mxgraph.bootstrap.rrect;rSize=5;strokeColor=none;strokeWidth=1;fillColor=#DB2843;fontColor=#FFFFFF;whiteSpace=wrap;align=center;verticalAlign=middle;spacingLeft=0;fontStyle=0;fontSize=16;spacing=5;rotation=20;&quot; vertex=&quot;1&quot; parent=&quot;1&quot;&gt;&#10;          &lt;mxGeometry x=&quot;1530&quot; y=&quot;65&quot; width=&quot;161.19&quot; height=&quot;40&quot; as=&quot;geometry&quot; /&gt;&#10;        &lt;/mxCell&gt;&#10;        &lt;mxCell id=&quot;wGRwjBiAR4KjwbIgUj5M-20&quot; value=&quot;&amp;lt;font style=&amp;quot;font-size: 21px;&amp;quot;&amp;gt;&amp;lt;b&amp;gt;git checkout -b&amp;lt;/b&amp;gt;&amp;lt;/font&amp;gt;&quot; style=&quot;html=1;shadow=0;dashed=0;shape=mxgraph.bootstrap.rrect;rSize=5;strokeColor=none;strokeWidth=1;fillColor=#DB2843;fontColor=#FFFFFF;whiteSpace=wrap;align=center;verticalAlign=middle;spacingLeft=0;fontStyle=0;fontSize=16;spacing=5;rotation=-15;&quot; vertex=&quot;1&quot; parent=&quot;1&quot;&gt;&#10;          &lt;mxGeometry x=&quot;1525&quot; y=&quot;230&quot; width=&quot;161.19&quot; height=&quot;40&quot; as=&quot;geometry&quot; /&gt;&#10;        &lt;/mxCell&gt;&#10;        &lt;mxCell id=&quot;wGRwjBiAR4KjwbIgUj5M-23&quot; value=&quot;&quot; style=&quot;endArrow=none;html=1;rounded=0;fontSize=12;curved=1;strokeWidth=3;targetPerimeterSpacing=0;sourcePerimeterSpacing=4;entryX=0.5;entryY=0;entryDx=0;entryDy=0;&quot; edge=&quot;1&quot; parent=&quot;1&quot; target=&quot;wGRwjBiAR4KjwbIgUj5M-24&quot;&gt;&#10;          &lt;mxGeometry width=&quot;50&quot; height=&quot;50&quot; relative=&quot;1&quot; as=&quot;geometry&quot;&gt;&#10;            &lt;mxPoint x=&quot;2315&quot; y=&quot;705&quot; as=&quot;sourcePoint&quot; /&gt;&#10;            &lt;mxPoint x=&quot;2315&quot; y=&quot;310&quot; as=&quot;targetPoint&quot; /&gt;&#10;          &lt;/mxGeometry&gt;&#10;        &lt;/mxCell&gt;&#10;        &lt;mxCell id=&quot;wGRwjBiAR4KjwbIgUj5M-31&quot; style=&quot;edgeStyle=none;curved=1;rounded=0;orthogonalLoop=1;jettySize=auto;html=1;fontSize=12;startSize=8;endSize=8;strokeWidth=3;flowAnimation=1;fillColor=#6a00ff;strokeColor=#3700CC;&quot; edge=&quot;1&quot; parent=&quot;1&quot;&gt;&#10;          &lt;mxGeometry relative=&quot;1&quot; as=&quot;geometry&quot;&gt;&#10;            &lt;mxPoint x=&quot;1920&quot; y=&quot;250&quot; as=&quot;targetPoint&quot; /&gt;&#10;            &lt;mxPoint x=&quot;2225&quot; y=&quot;330&quot; as=&quot;sourcePoint&quot; /&gt;&#10;          &lt;/mxGeometry&gt;&#10;        &lt;/mxCell&gt;&#10;        &lt;mxCell id=&quot;wGRwjBiAR4KjwbIgUj5M-34&quot; style=&quot;edgeStyle=none;curved=1;rounded=0;orthogonalLoop=1;jettySize=auto;html=1;fontSize=12;startSize=8;endSize=8;strokeWidth=3;flowAnimation=1;&quot; edge=&quot;1&quot; parent=&quot;1&quot;&gt;&#10;          &lt;mxGeometry relative=&quot;1&quot; as=&quot;geometry&quot;&gt;&#10;            &lt;mxPoint x=&quot;2315&quot; y=&quot;55&quot; as=&quot;targetPoint&quot; /&gt;&#10;            &lt;mxPoint x=&quot;2315&quot; y=&quot;260&quot; as=&quot;sourcePoint&quot; /&gt;&#10;          &lt;/mxGeometry&gt;&#10;        &lt;/mxCell&gt;&#10;        &lt;mxCell id=&quot;wGRwjBiAR4KjwbIgUj5M-24&quot; value=&quot;&amp;amp;nbsp; &amp;amp;nbsp; &amp;amp;nbsp; &amp;lt;b&amp;gt;Last release&amp;lt;/b&amp;gt;&quot; style=&quot;rounded=0;whiteSpace=wrap;html=1;fontSize=16;&quot; vertex=&quot;1&quot; parent=&quot;1&quot;&gt;&#10;          &lt;mxGeometry x=&quot;2230&quot; y=&quot;285&quot; width=&quot;170&quot; height=&quot;80&quot; as=&quot;geometry&quot; /&gt;&#10;        &lt;/mxCell&gt;&#10;        &lt;mxCell id=&quot;wGRwjBiAR4KjwbIgUj5M-25&quot; value=&quot;&quot; style=&quot;verticalLabelPosition=bottom;html=1;verticalAlign=top;align=center;strokeColor=#3700CC;fillColor=#6a00ff;shape=mxgraph.azure.git_repository;fontSize=16;fontColor=#ffffff;&quot; vertex=&quot;1&quot; parent=&quot;1&quot;&gt;&#10;          &lt;mxGeometry x=&quot;2230&quot; y=&quot;285&quot; width=&quot;50&quot; height=&quot;50&quot; as=&quot;geometry&quot; /&gt;&#10;        &lt;/mxCell&gt;&#10;        &lt;mxCell id=&quot;wGRwjBiAR4KjwbIgUj5M-27&quot; value=&quot;&amp;lt;span style=&amp;quot;font-size: 19px;&amp;quot;&amp;gt;Master&amp;lt;/span&amp;gt;&quot; style=&quot;rounded=0;whiteSpace=wrap;html=1;fontSize=16;fillColor=#fff2cc;strokeColor=#d6b656;fillStyle=auto;strokeWidth=3;gradientColor=none;&quot; vertex=&quot;1&quot; parent=&quot;1&quot;&gt;&#10;          &lt;mxGeometry x=&quot;2185&quot; y=&quot;-77&quot; width=&quot;250&quot; height=&quot;120&quot; as=&quot;geometry&quot; /&gt;&#10;        &lt;/mxCell&gt;&#10;        &lt;mxCell id=&quot;wGRwjBiAR4KjwbIgUj5M-28&quot; value=&quot;&quot; style=&quot;verticalLabelPosition=bottom;html=1;verticalAlign=top;align=center;strokeColor=#3700CC;fillColor=#6a00ff;shape=mxgraph.azure.git_repository;fontSize=16;fontColor=#ffffff;&quot; vertex=&quot;1&quot; parent=&quot;1&quot;&gt;&#10;          &lt;mxGeometry x=&quot;2185&quot; y=&quot;-72&quot; width=&quot;60&quot; height=&quot;55&quot; as=&quot;geometry&quot; /&gt;&#10;        &lt;/mxCell&gt;&#10;        &lt;mxCell id=&quot;wGRwjBiAR4KjwbIgUj5M-15&quot; value=&quot;&quot; style=&quot;sketch=0;outlineConnect=0;fontColor=#232F3E;gradientColor=none;fillColor=#232F3D;strokeColor=none;dashed=0;verticalLabelPosition=bottom;verticalAlign=top;align=center;html=1;fontSize=12;fontStyle=0;aspect=fixed;pointerEvents=1;shape=mxgraph.aws4.git_repository;&quot; vertex=&quot;1&quot; parent=&quot;1&quot;&gt;&#10;          &lt;mxGeometry x=&quot;2405&quot; y=&quot;-90&quot; width=&quot;60&quot; height=&quot;78&quot; as=&quot;geometry&quot; /&gt;&#10;        &lt;/mxCell&gt;&#10;        &lt;mxCell id=&quot;wGRwjBiAR4KjwbIgUj5M-33&quot; value=&quot;&amp;lt;font style=&amp;quot;font-size: 21px;&amp;quot;&amp;gt;&amp;lt;b&amp;gt;git checkout -b&amp;lt;/b&amp;gt;&amp;lt;/font&amp;gt;&quot; style=&quot;html=1;shadow=0;dashed=0;shape=mxgraph.bootstrap.rrect;rSize=5;strokeColor=#3700CC;strokeWidth=1;fillColor=#6a00ff;whiteSpace=wrap;align=center;verticalAlign=middle;spacingLeft=0;fontStyle=0;fontSize=16;spacing=5;rotation=15;fontColor=#ffffff;&quot; vertex=&quot;1&quot; parent=&quot;1&quot;&gt;&#10;          &lt;mxGeometry x=&quot;2045&quot; y=&quot;315&quot; width=&quot;161.19&quot; height=&quot;40&quot; as=&quot;geometry&quot; /&gt;&#10;        &lt;/mxCell&gt;&#10;        &lt;mxCell id=&quot;wGRwjBiAR4KjwbIgUj5M-35&quot; value=&quot;&amp;lt;b&amp;gt;Tag : 5.x.x&amp;lt;/b&amp;gt;&quot; style=&quot;ellipse;shape=cloud;whiteSpace=wrap;html=1;fontSize=16;strokeWidth=2;movableLabel=0;autosize=0;fixedWidth=0;sketch=1;curveFitting=1;jiggle=2;shadow=1;&quot; vertex=&quot;1&quot; parent=&quot;1&quot;&gt;&#10;          &lt;mxGeometry x=&quot;2470&quot; y=&quot;325&quot; width=&quot;150&quot; height=&quot;105&quot; as=&quot;geometry&quot; /&gt;&#10;        &lt;/mxCell&gt;&#10;        &lt;mxCell id=&quot;wGRwjBiAR4KjwbIgUj5M-36&quot; style=&quot;edgeStyle=none;curved=1;rounded=0;orthogonalLoop=1;jettySize=auto;html=1;entryX=0.07;entryY=0.4;entryDx=0;entryDy=0;entryPerimeter=0;fontSize=12;dashed=1;&quot; edge=&quot;1&quot; parent=&quot;1&quot; source=&quot;wGRwjBiAR4KjwbIgUj5M-24&quot; target=&quot;wGRwjBiAR4KjwbIgUj5M-35&quot;&gt;&#10;          &lt;mxGeometry relative=&quot;1&quot; as=&quot;geometry&quot; /&gt;&#10;        &lt;/mxCell&gt;&#10;        &lt;mxCell id=&quot;wGRwjBiAR4KjwbIgUj5M-37&quot; value=&quot;&amp;lt;font style=&amp;quot;font-size: 21px;&amp;quot;&amp;gt;&amp;lt;b&amp;gt;git&amp;amp;nbsp; &amp;amp;nbsp;push&amp;lt;/b&amp;gt;&amp;lt;/font&amp;gt;&quot; style=&quot;text;html=1;strokeColor=none;fillColor=none;align=center;verticalAlign=middle;whiteSpace=wrap;rounded=0;fontSize=16;rotation=-15;&quot; vertex=&quot;1&quot; parent=&quot;1&quot;&gt;&#10;          &lt;mxGeometry x=&quot;2260&quot; y=&quot;130&quot; width=&quot;130&quot; height=&quot;30&quot; as=&quot;geometry&quot; /&gt;&#10;        &lt;/mxCell&gt;&#10;        &lt;mxCell id=&quot;wGRwjBiAR4KjwbIgUj5M-44&quot; value=&quot;&amp;lt;font color=&amp;quot;#0d0c0c&amp;quot; face=&amp;quot;Tahoma&amp;quot; style=&amp;quot;font-size: 42px;&amp;quot;&amp;gt;&amp;lt;b style=&amp;quot;&amp;quot;&amp;gt;LIVRAISON REC&amp;lt;/b&amp;gt;&amp;lt;/font&amp;gt;&quot; style=&quot;dashed=0;html=1;rounded=1;fillColor=#f3f1f1;strokeColor=#172B4D;fontSize=12;align=center;fontStyle=0;strokeWidth=2;fontColor=#ffffff;gradientColor=none;glass=1;shadow=0;&quot; vertex=&quot;1&quot; parent=&quot;1&quot;&gt;&#10;          &lt;mxGeometry x=&quot;1693.1&quot; y=&quot;-340&quot; width=&quot;865&quot; height=&quot;110&quot; as=&quot;geometry&quot; /&gt;&#10;        &lt;/mxCell&gt;&#10;        &lt;mxCell id=&quot;wGRwjBiAR4KjwbIgUj5M-47&quot; value=&quot;&amp;lt;div style=&amp;quot;text-align: justify; font-size: 21px;&amp;quot;&amp;gt;&amp;lt;span style=&amp;quot;background-color: initial;&amp;quot;&amp;gt;&amp;lt;font style=&amp;quot;font-size: 21px;&amp;quot;&amp;gt;&amp;lt;b&amp;gt;Étape 1 :&amp;lt;/b&amp;gt;&amp;lt;/font&amp;gt;&amp;lt;/span&amp;gt;&amp;lt;/div&amp;gt;&amp;lt;div style=&amp;quot;text-align: justify; font-size: 21px;&amp;quot;&amp;gt;&amp;lt;span style=&amp;quot;background-color: initial;&amp;quot;&amp;gt;&amp;lt;font style=&amp;quot;font-size: 21px;&amp;quot;&amp;gt;&amp;lt;b&amp;gt;&amp;lt;br&amp;gt;&amp;lt;/b&amp;gt;&amp;lt;/font&amp;gt;&amp;lt;/span&amp;gt;&amp;lt;/div&amp;gt;&amp;lt;font style=&amp;quot;font-size: 21px;&amp;quot;&amp;gt;&amp;lt;div style=&amp;quot;text-align: justify;&amp;quot;&amp;gt;&amp;lt;span style=&amp;quot;background-color: initial;&amp;quot;&amp;gt;&amp;amp;nbsp;Créer une branche release ( &amp;lt;font color=&amp;quot;#f02424&amp;quot;&amp;gt;current release&amp;lt;/font&amp;gt; ) à partir de la branche de la dernière release ( ou de la branche master).&amp;lt;/span&amp;gt;&amp;lt;/div&amp;gt;&amp;lt;div style=&amp;quot;text-align: justify;&amp;quot;&amp;gt;&amp;lt;br&amp;gt;&amp;lt;/div&amp;gt;&amp;lt;div style=&amp;quot;text-align: justify;&amp;quot;&amp;gt;&amp;lt;span style=&amp;quot;background-color: initial;&amp;quot;&amp;gt;&amp;lt;b&amp;gt;Étape 2 :&amp;lt;/b&amp;gt;&amp;lt;/span&amp;gt;&amp;lt;/div&amp;gt;&amp;lt;div style=&amp;quot;text-align: justify;&amp;quot;&amp;gt;&amp;lt;span style=&amp;quot;background-color: initial;&amp;quot;&amp;gt;&amp;lt;b&amp;gt;&amp;lt;br&amp;gt;&amp;lt;/b&amp;gt;&amp;lt;/span&amp;gt;&amp;lt;/div&amp;gt;&amp;lt;div style=&amp;quot;text-align: justify;&amp;quot;&amp;gt;&amp;lt;span style=&amp;quot;background-color: initial;&amp;quot;&amp;gt;&amp;amp;nbsp;Chaque équipe crée une nouvelle branche pour y apporter ses modifications destinées à la livraison en &amp;lt;b&amp;gt;&amp;lt;font color=&amp;quot;#f50f0f&amp;quot;&amp;gt;PROD&amp;lt;/font&amp;gt;&amp;lt;/b&amp;gt;.&amp;amp;nbsp;&amp;lt;/span&amp;gt;&amp;lt;/div&amp;gt;&amp;lt;div style=&amp;quot;text-align: justify;&amp;quot;&amp;gt;&amp;lt;span style=&amp;quot;background-color: initial;&amp;quot;&amp;gt;Une fois les modifications effectuées, une &amp;lt;font color=&amp;quot;#f90606&amp;quot;&amp;gt;&amp;lt;b&amp;gt;pull request&amp;lt;/b&amp;gt;&amp;lt;/font&amp;gt; est soumise pour fusionner avec la branche &amp;lt;font color=&amp;quot;#f31212&amp;quot;&amp;gt;current release&amp;lt;/font&amp;gt;. Les équipes respectives chargées de ces branches valident les pull requests, vérifiant particulièrement l&amp;#39;absence de régressions, surtout au niveau de la BDM.&amp;lt;/span&amp;gt;&amp;lt;/div&amp;gt;&amp;lt;div style=&amp;quot;text-align: justify;&amp;quot;&amp;gt;&amp;lt;br&amp;gt;&amp;lt;/div&amp;gt;&amp;lt;div style=&amp;quot;text-align: justify;&amp;quot;&amp;gt;&amp;lt;span style=&amp;quot;background-color: initial;&amp;quot;&amp;gt;&amp;lt;b&amp;gt;Étape 3 :&amp;lt;/b&amp;gt;&amp;lt;/span&amp;gt;&amp;lt;/div&amp;gt;&amp;lt;div style=&amp;quot;text-align: justify;&amp;quot;&amp;gt;&amp;lt;span style=&amp;quot;background-color: initial;&amp;quot;&amp;gt;&amp;lt;b&amp;gt;&amp;lt;br&amp;gt;&amp;lt;/b&amp;gt;&amp;lt;/span&amp;gt;&amp;lt;/div&amp;gt;&amp;lt;div style=&amp;quot;text-align: justify;&amp;quot;&amp;gt;&amp;lt;span style=&amp;quot;background-color: initial;&amp;quot;&amp;gt;&amp;amp;nbsp;Après l&amp;#39;installation en environnement de PROD, une personne effectue le push de la release sur la branche MASTER.&amp;lt;br&amp;gt;( la branche : current release devient la branche last release ).&amp;lt;/span&amp;gt;&amp;lt;/div&amp;gt;&amp;lt;/font&amp;gt;&quot; style=&quot;rounded=0;whiteSpace=wrap;html=1;fontSize=16;fillColor=#fff2cc;strokeColor=#d6b656;&quot; vertex=&quot;1&quot; parent=&quot;1&quot;&gt;&#10;          &lt;mxGeometry x=&quot;2440&quot; y=&quot;540&quot; width=&quot;1105&quot; height=&quot;440&quot; as=&quot;geometry&quot; /&gt;&#10;        &lt;/mxCell&gt;&#10;        &lt;mxCell id=&quot;wGRwjBiAR4KjwbIgUj5M-52&quot; style=&quot;edgeStyle=none;curved=1;rounded=0;orthogonalLoop=1;jettySize=auto;html=1;fontSize=12;startSize=8;endSize=8;&quot; edge=&quot;1&quot; parent=&quot;1&quot; source=&quot;wGRwjBiAR4KjwbIgUj5M-51&quot;&gt;&#10;          &lt;mxGeometry relative=&quot;1&quot; as=&quot;geometry&quot;&gt;&#10;            &lt;mxPoint x=&quot;1820&quot; y=&quot;620&quot; as=&quot;targetPoint&quot; /&gt;&#10;          &lt;/mxGeometry&gt;&#10;        &lt;/mxCell&gt;&#10;        &lt;mxCell id=&quot;wGRwjBiAR4KjwbIgUj5M-51&quot; value=&quot;&amp;lt;font style=&amp;quot;font-size: 25px;&amp;quot;&amp;gt;Branche release contient que les modifs qui partent en PROD&amp;lt;/font&amp;gt;&quot; style=&quot;rounded=1;whiteSpace=wrap;html=1;container=1;collapsible=0;absoluteArcSize=1;arcSize=20;childLayout=stackLayout;horizontal=1;horizontalStack=0;resizeParent=1;resizeParentMax=0;resizeLast=0;fontSize=16;gradientColor=#e1dbdb;gradientDirection=north;fillColor=#c7f0eb;shadow=0;glass=1;dashed=1;strokeWidth=3;&quot; vertex=&quot;1&quot; parent=&quot;1&quot;&gt;&#10;          &lt;mxGeometry x=&quot;1550&quot; y=&quot;760&quot; width=&quot;260&quot; height=&quot;170&quot; as=&quot;geometry&quot; /&gt;&#10;        &lt;/mxCell&gt;&#10;      &lt;/root&gt;&#10;    &lt;/mxGraphModel&gt;&#10;  &lt;/diagram&gt;&#10;&lt;/mxfile&gt;&#10;"><defs><style type="text/css" id="ge-export-svg-flow-animation">.ge-export-svg-flow-animation {&#xa;animation: ge-export-svg-flow-animation 0.5s linear;&#xa;animation-iteration-count: infinite;&#xa;}&#xa;@keyframes ge-export-svg-flow-animation {&#xa;to {&#xa;stroke-dashoffset: -16;&#xa;}&#xa;}</style><linearGradient x1="0%" y1="0%" x2="0%" y2="100%" id="mx-gradient-ffffff-0.9-ffffff-0.1-s-0"><stop offset="0%" style="stop-color: rgb(255, 255, 255); stop-opacity: 0.9;"/><stop offset="100%" style="stop-color: rgb(255, 255, 255); stop-opacity: 0.1;"/></linearGradient><linearGradient x1="0%" y1="100%" x2="0%" y2="0%" id="mx-gradient-e1dbdb-1-c7f0eb-1-s-0"><stop offset="0%" style="stop-color: rgb(199, 240, 235); stop-opacity: 1;"/><stop offset="100%" style="stop-color: rgb(225, 219, 219); stop-opacity: 1;"/></linearGradient><filter id="dropShadow"><feGaussianBlur in="SourceAlpha" stdDeviation="1.7" result="blur"/><feOffset in="blur" dx="3" dy="3" result="offsetBlur"/><feFlood flood-color="#3D4574" flood-opacity="0.4" result="offsetColor"/><feComposite in="offsetColor" in2="offsetBlur" operator="in" result="offsetBlur"/><feBlend in="SourceGraphic" in2="offsetBlur"/></filter></defs><g filter="url(#dropShadow)"><rect x="0" y="1" width="2750" height="1320" fill="rgb(255, 255, 255)" stroke="rgb(0, 0, 0)" pointer-events="all"/><path d="M 1019.29 1031 Q 1019.29 1031 1019.29 151" fill="none" stroke="rgb(0, 0, 0)" stroke-width="3" stroke-miterlimit="10" pointer-events="stroke"/><path d="M 229.5 1021 Q 229.5 1021 229.5 611" fill="none" stroke="rgb(0, 0, 0)" stroke-width="3" stroke-miterlimit="10" pointer-events="stroke"/><path d="M 229.5 551 L 229.5 141" fill="none" stroke="rgb(0, 0, 0)" stroke-width="3" stroke-miterlimit="10" pointer-events="stroke"/><path stroke-dasharray="8" class="ge-export-svg-flow-animation" d="M 310 261 Q 310 261 998.4 261" fill="none" stroke="rgb(0, 0, 0)" stroke-width="3" stroke-miterlimit="10" pointer-events="stroke"/><path d="M 1006.65 261 L 995.65 266.5 L 998.4 261 L 995.65 255.5 Z" fill="rgb(0, 0, 0)" stroke="rgb(0, 0, 0)" stroke-width="3" stroke-miterlimit="10" pointer-events="all"/><rect x="150" y="221" width="160" height="80" fill="rgb(255, 255, 255)" stroke="rgb(0, 0, 0)" pointer-events="all"/><g transform="translate(-0.5 -0.5)"><switch><foreignObject pointer-events="none" width="100%" height="100%" requiredFeatures="http://www.w3.org/TR/SVG11/feature#Extensibility" style="overflow: visible; text-align: left;"><div xmlns="http://www.w3.org/1999/xhtml" style="display: flex; align-items: unsafe center; justify-content: unsafe center; width: 158px; height: 1px; padding-top: 261px; margin-left: 151px;"><div data-drawio-colors="color: rgb(0, 0, 0); " style="box-sizing: border-box; font-size: 0px; text-align: center;"><div style="display: inline-block; font-size: 16px; font-family: Helvetica; color: rgb(0, 0, 0); line-height: 1.2; pointer-events: all; white-space: normal; overflow-wrap: normal;">      <b>Branch CT</b></div></div></div></foreignObject><text x="230" y="266" fill="rgb(0, 0, 0)" font-family="Helvetica" font-size="16px" text-anchor="middle">      Branch CT</text></switch></g><path d="M 173.2 221.8 C 174.27 221 175.73 221 176.8 221.8 L 199.25 244.32 C 200 245.37 200 246.79 199.25 247.84 L 177.25 270.06 C 176.68 270.66 175.9 271 175.07 271 C 174.25 271 173.47 270.66 172.9 270.06 L 150.75 247.84 C 150 246.79 150 245.37 150.75 244.32 L 166.05 228.99 L 171.55 234.47 C 170.86 236.48 171.85 238.68 173.8 239.5 L 173.8 253.17 C 172.18 253.89 171.29 255.66 171.66 257.4 C 172.02 259.14 173.55 260.38 175.33 260.38 C 177.1 260.38 178.63 259.14 178.99 257.4 C 179.36 255.66 178.47 253.89 176.85 253.17 L 176.85 239.8 L 182 245.03 C 181.35 246.68 181.94 248.57 183.42 249.55 C 184.89 250.53 186.85 250.34 188.11 249.1 C 189.38 247.86 189.61 245.9 188.66 244.39 C 187.72 242.89 185.86 242.25 184.2 242.87 L 178.7 237.34 C 179.24 235.94 178.9 234.37 177.85 233.31 C 176.8 232.26 175.23 231.92 173.85 232.46 L 168.2 226.88 Z" fill="#00bef2" stroke="none" pointer-events="all"/><path stroke-dasharray="8" class="ge-export-svg-flow-animation" d="M 310 789.96 Q 310 789.96 988.4 781.15" fill="none" stroke="rgb(0, 0, 0)" stroke-width="3" stroke-miterlimit="10" pointer-events="stroke"/><path d="M 996.65 781.04 L 985.72 786.69 L 988.4 781.15 L 985.58 775.69 Z" fill="rgb(0, 0, 0)" stroke="rgb(0, 0, 0)" stroke-width="3" stroke-miterlimit="10" pointer-events="all"/><rect x="150" y="751" width="160" height="80" fill="rgb(255, 255, 255)" stroke="rgb(0, 0, 0)" pointer-events="all"/><g transform="translate(-0.5 -0.5)"><switch><foreignObject pointer-events="none" width="100%" height="100%" requiredFeatures="http://www.w3.org/TR/SVG11/feature#Extensibility" style="overflow: visible; text-align: left;"><div xmlns="http://www.w3.org/1999/xhtml" style="display: flex; align-items: unsafe center; justify-content: unsafe center; width: 158px; height: 1px; padding-top: 791px; margin-left: 151px;"><div data-drawio-colors="color: rgb(0, 0, 0); " style="box-sizing: border-box; font-size: 0px; text-align: center;"><div style="display: inline-block; font-size: 16px; font-family: Helvetica; color: rgb(0, 0, 0); line-height: 1.2; pointer-events: all; white-space: normal; overflow-wrap: normal;">      <b>Branch ADL</b></div></div></div></foreignObject><text x="230" y="796" fill="rgb(0, 0, 0)" font-family="Helvetica" font-size="16px" text-anchor="middle">      Branch ADL</text></switch></g><path d="M 173.2 751.8 C 174.27 751 175.73 751 176.8 751.8 L 199.25 774.32 C 200 775.37 200 776.79 199.25 777.84 L 177.25 800.06 C 176.68 800.66 175.9 801 175.07 801 C 174.25 801 173.47 800.66 172.9 800.06 L 150.75 777.84 C 150 776.79 150 775.37 150.75 774.32 L 166.05 758.99 L 171.55 764.47 C 170.86 766.48 171.85 768.68 173.8 769.5 L 173.8 783.17 C 172.18 783.89 171.29 785.66 171.66 787.4 C 172.02 789.14 173.55 790.38 175.33 790.38 C 177.1 790.38 178.63 789.14 178.99 787.4 C 179.36 785.66 178.47 783.89 176.85 783.17 L 176.85 769.8 L 182 775.03 C 181.35 776.68 181.94 778.57 183.42 779.55 C 184.89 780.53 186.85 780.34 188.11 779.1 C 189.38 777.86 189.61 775.9 188.66 774.39 C 187.72 772.89 185.86 772.25 184.2 772.87 L 178.7 767.34 C 179.24 765.94 178.9 764.37 177.85 763.31 C 176.8 762.26 175.23 761.92 173.85 762.46 L 168.2 756.88 Z" fill="#60a917" stroke="#2d7600" stroke-miterlimit="10" pointer-events="all"/><path stroke-dasharray="8" class="ge-export-svg-flow-animation" d="M 941.67 581 Q 900 601 331.23 748.09" fill="none" stroke="#a50040" stroke-width="3" stroke-miterlimit="10" pointer-events="stroke"/><path d="M 323.25 750.16 L 332.52 742.08 L 331.23 748.09 L 335.27 752.73 Z" fill="#a50040" stroke="#a50040" stroke-width="3" stroke-miterlimit="10" pointer-events="all"/><rect x="940" y="501" width="170" height="80" fill="rgb(255, 255, 255)" stroke="rgb(0, 0, 0)" pointer-events="all"/><g transform="translate(-0.5 -0.5)"><switch><foreignObject pointer-events="none" width="100%" height="100%" requiredFeatures="http://www.w3.org/TR/SVG11/feature#Extensibility" style="overflow: visible; text-align: left;"><div xmlns="http://www.w3.org/1999/xhtml" style="display: flex; align-items: unsafe center; justify-content: unsafe center; width: 168px; height: 1px; padding-top: 541px; margin-left: 941px;"><div data-drawio-colors="color: rgb(0, 0, 0); " style="box-sizing: border-box; font-size: 0px; text-align: center;"><div style="display: inline-block; font-size: 16px; font-family: Helvetica; color: rgb(0, 0, 0); line-height: 1.2; pointer-events: all; white-space: normal; overflow-wrap: normal;">          <b>Current release</b></div></div></div></foreignObject><text x="1025" y="546" fill="rgb(0, 0, 0)" font-family="Helvetica" font-size="16px" text-anchor="middle">Current rel...</text></switch></g><path stroke-dasharray="8" class="ge-export-svg-flow-animation" d="M 940 501 Q 940 501 331.04 304.56" fill="none" stroke="#a50040" stroke-width="3" stroke-miterlimit="10" pointer-events="stroke"/><path d="M 323.19 302.03 L 335.35 300.17 L 331.04 304.56 L 331.97 310.64 Z" fill="#a50040" stroke="#a50040" stroke-width="3" stroke-miterlimit="10" pointer-events="all"/><path d="M 963.2 501.8 C 964.27 501 965.73 501 966.8 501.8 L 989.25 524.32 C 990 525.37 990 526.79 989.25 527.84 L 967.25 550.06 C 966.68 550.66 965.9 551 965.07 551 C 964.25 551 963.47 550.66 962.9 550.06 L 940.75 527.84 C 940 526.79 940 525.37 940.75 524.32 L 956.05 508.99 L 961.55 514.47 C 960.86 516.48 961.85 518.68 963.8 519.5 L 963.8 533.17 C 962.18 533.89 961.29 535.66 961.66 537.4 C 962.02 539.14 963.55 540.38 965.33 540.38 C 967.1 540.38 968.63 539.14 968.99 537.4 C 969.36 535.66 968.47 533.89 966.85 533.17 L 966.85 519.8 L 972 525.03 C 971.35 526.68 971.94 528.57 973.42 529.55 C 974.89 530.53 976.85 530.34 978.11 529.1 C 979.38 527.86 979.61 525.9 978.66 524.39 C 977.72 522.89 975.86 522.25 974.2 522.87 L 968.7 517.34 C 969.24 515.94 968.9 514.37 967.85 513.31 C 966.8 512.26 965.23 511.92 963.85 512.46 L 958.2 506.88 Z" fill="#d80073" stroke="#a50040" stroke-miterlimit="10" pointer-events="all"/><rect x="480" y="206" width="145" height="35" rx="5" fill="#1ba1e2" stroke="#006eaf" pointer-events="all"/><g transform="translate(-0.5 -0.5)"><switch><foreignObject pointer-events="none" width="100%" height="100%" requiredFeatures="http://www.w3.org/TR/SVG11/feature#Extensibility" style="overflow: visible; text-align: left;"><div xmlns="http://www.w3.org/1999/xhtml" style="display: flex; align-items: unsafe center; justify-content: unsafe flex-start; width: 137px; height: 1px; padding-top: 224px; margin-left: 485px;"><div data-drawio-colors="color: #ffffff; " style="box-sizing: border-box; font-size: 0px; text-align: left;"><div style="display: inline-block; font-size: 14px; font-family: Helvetica; color: rgb(255, 255, 255); line-height: 1.2; pointer-events: all; font-weight: bold; white-space: normal; overflow-wrap: normal;"><span style="font-size: 23px;">Pull request</span></div></div></div></foreignObject><text x="485" y="228" fill="#ffffff" font-family="Helvetica" font-size="14px" font-weight="bold">Pull request</text></switch></g><rect x="465" y="806" width="145" height="35" rx="5" fill="#60a917" stroke="#2d7600" pointer-events="all"/><g transform="translate(-0.5 -0.5)"><switch><foreignObject pointer-events="none" width="100%" height="100%" requiredFeatures="http://www.w3.org/TR/SVG11/feature#Extensibility" style="overflow: visible; text-align: left;"><div xmlns="http://www.w3.org/1999/xhtml" style="display: flex; align-items: unsafe center; justify-content: unsafe flex-start; width: 137px; height: 1px; padding-top: 824px; margin-left: 470px;"><div data-drawio-colors="color: #ffffff; " style="box-sizing: border-box; font-size: 0px; text-align: left;"><div style="display: inline-block; font-size: 14px; font-family: Helvetica; color: rgb(255, 255, 255); line-height: 1.2; pointer-events: all; font-weight: bold; white-space: normal; overflow-wrap: normal;"><span style="font-size: 23px;">Pull request</span></div></div></div></foreignObject><text x="470" y="828" fill="#ffffff" font-family="Helvetica" font-size="14px" font-weight="bold">Pull request</text></switch></g><rect x="730" y="406" width="161.19" height="40" rx="5" fill="#db2843" stroke="none" transform="rotate(20,810.6,426)" pointer-events="all"/><g transform="translate(-0.5 -0.5)rotate(20 810.5950000000003 426)"><switch><foreignObject pointer-events="none" width="100%" height="100%" requiredFeatures="http://www.w3.org/TR/SVG11/feature#Extensibility" style="overflow: visible; text-align: left;"><div xmlns="http://www.w3.org/1999/xhtml" style="display: flex; align-items: unsafe center; justify-content: unsafe center; width: 153px; height: 1px; padding-top: 426px; margin-left: 734px;"><div data-drawio-colors="color: #FFFFFF; " style="box-sizing: border-box; font-size: 0px; text-align: center;"><div style="display: inline-block; font-size: 16px; font-family: Helvetica; color: rgb(255, 255, 255); line-height: 1.2; pointer-events: all; white-space: normal; overflow-wrap: normal;"><font style="font-size: 21px;"><b>git checkout -b</b></font></div></div></div></foreignObject><text x="811" y="431" fill="#FFFFFF" font-family="Helvetica" font-size="16px" text-anchor="middle">git checkout -b</text></switch></g><rect x="725" y="571" width="161.19" height="40" rx="5" fill="#db2843" stroke="none" transform="rotate(-15,805.6,591)" pointer-events="all"/><g transform="translate(-0.5 -0.5)rotate(-15 805.5950000000003 591)"><switch><foreignObject pointer-events="none" width="100%" height="100%" requiredFeatures="http://www.w3.org/TR/SVG11/feature#Extensibility" style="overflow: visible; text-align: left;"><div xmlns="http://www.w3.org/1999/xhtml" style="display: flex; align-items: unsafe center; justify-content: unsafe center; width: 153px; height: 1px; padding-top: 591px; margin-left: 729px;"><div data-drawio-colors="color: #FFFFFF; " style="box-sizing: border-box; font-size: 0px; text-align: center;"><div style="display: inline-block; font-size: 16px; font-family: Helvetica; color: rgb(255, 255, 255); line-height: 1.2; pointer-events: all; white-space: normal; overflow-wrap: normal;"><font style="font-size: 21px;"><b>git checkout -b</b></font></div></div></div></foreignObject><text x="806" y="596" fill="#FFFFFF" font-family="Helvetica" font-size="16px" text-anchor="middle">git checkout -b</text></switch></g><path d="M 1515 1046 Q 1515 1046 1515 626" fill="none" stroke="rgb(0, 0, 0)" stroke-width="3" stroke-miterlimit="10" pointer-events="stroke"/><path stroke-dasharray="8" class="ge-export-svg-flow-animation" d="M 1425 671 Q 1425 671 1131.22 593.94" fill="none" stroke="#3700cc" stroke-width="3" stroke-miterlimit="10" pointer-events="stroke"/><path d="M 1123.24 591.85 L 1135.28 589.32 L 1131.22 593.94 L 1132.49 599.96 Z" fill="#3700cc" stroke="#3700cc" stroke-width="3" stroke-miterlimit="10" pointer-events="all"/><path stroke-dasharray="8" class="ge-export-svg-flow-animation" d="M 1515 601 Q 1515 601 1515 407.6" fill="none" stroke="rgb(0, 0, 0)" stroke-width="3" stroke-miterlimit="10" pointer-events="stroke"/><path d="M 1515 399.35 L 1520.5 410.35 L 1515 407.6 L 1509.5 410.35 Z" fill="rgb(0, 0, 0)" stroke="rgb(0, 0, 0)" stroke-width="3" stroke-miterlimit="10" pointer-events="all"/><rect x="1430" y="626" width="170" height="80" fill="rgb(255, 255, 255)" stroke="rgb(0, 0, 0)" pointer-events="all"/><g transform="translate(-0.5 -0.5)"><switch><foreignObject pointer-events="none" width="100%" height="100%" requiredFeatures="http://www.w3.org/TR/SVG11/feature#Extensibility" style="overflow: visible; text-align: left;"><div xmlns="http://www.w3.org/1999/xhtml" style="display: flex; align-items: unsafe center; justify-content: unsafe center; width: 168px; height: 1px; padding-top: 666px; margin-left: 1431px;"><div data-drawio-colors="color: rgb(0, 0, 0); " style="box-sizing: border-box; font-size: 0px; text-align: center;"><div style="display: inline-block; font-size: 16px; font-family: Helvetica; color: rgb(0, 0, 0); line-height: 1.2; pointer-events: all; white-space: normal; overflow-wrap: normal;">      <b>Last release</b></div></div></div></foreignObject><text x="1515" y="671" fill="rgb(0, 0, 0)" font-family="Helvetica" font-size="16px" text-anchor="middle">      Last release</text></switch></g><path d="M 1453.2 626.8 C 1454.27 626 1455.73 626 1456.8 626.8 L 1479.25 649.32 C 1480 650.37 1480 651.79 1479.25 652.84 L 1457.25 675.06 C 1456.68 675.66 1455.9 676 1455.07 676 C 1454.25 676 1453.47 675.66 1452.9 675.06 L 1430.75 652.84 C 1430 651.79 1430 650.37 1430.75 649.32 L 1446.05 633.99 L 1451.55 639.47 C 1450.86 641.48 1451.85 643.68 1453.8 644.5 L 1453.8 658.17 C 1452.18 658.89 1451.29 660.66 1451.66 662.4 C 1452.02 664.14 1453.55 665.38 1455.33 665.38 C 1457.1 665.38 1458.63 664.14 1458.99 662.4 C 1459.36 660.66 1458.47 658.89 1456.85 658.17 L 1456.85 644.8 L 1462 650.03 C 1461.35 651.68 1461.94 653.57 1463.42 654.55 C 1464.89 655.53 1466.85 655.34 1468.11 654.1 C 1469.38 652.86 1469.61 650.9 1468.66 649.39 C 1467.72 647.89 1465.86 647.25 1464.2 647.87 L 1458.7 642.34 C 1459.24 640.94 1458.9 639.37 1457.85 638.31 C 1456.8 637.26 1455.23 636.92 1453.85 637.46 L 1448.2 631.88 Z" fill="#6a00ff" stroke="#3700cc" stroke-miterlimit="10" pointer-events="all"/><rect x="1385" y="264" width="250" height="120" fill="#fff2cc" stroke="#d6b656" stroke-width="3" pointer-events="all"/><g transform="translate(-0.5 -0.5)"><switch><foreignObject pointer-events="none" width="100%" height="100%" requiredFeatures="http://www.w3.org/TR/SVG11/feature#Extensibility" style="overflow: visible; text-align: left;"><div xmlns="http://www.w3.org/1999/xhtml" style="display: flex; align-items: unsafe center; justify-content: unsafe center; width: 248px; height: 1px; padding-top: 324px; margin-left: 1386px;"><div data-drawio-colors="color: rgb(0, 0, 0); " style="box-sizing: border-box; font-size: 0px; text-align: center;"><div style="display: inline-block; font-size: 16px; font-family: Helvetica; color: rgb(0, 0, 0); line-height: 1.2; pointer-events: all; white-space: normal; overflow-wrap: normal;"><span style="font-size: 19px;">Master</span></div></div></div></foreignObject><text x="1510" y="329" fill="rgb(0, 0, 0)" font-family="Helvetica" font-size="16px" text-anchor="middle">Master</text></switch></g><path d="M 1412.84 269.88 C 1414.12 269 1415.88 269 1417.16 269.88 L 1444.1 294.66 C 1445 295.81 1445 297.37 1444.1 298.53 L 1417.7 322.97 C 1417.02 323.63 1416.08 324 1415.09 324 C 1414.1 324 1413.16 323.63 1412.48 322.97 L 1385.9 298.53 C 1385 297.37 1385 295.81 1385.9 294.66 L 1404.26 277.79 L 1410.86 283.82 C 1410.03 286.03 1411.22 288.45 1413.56 289.35 L 1413.56 304.39 C 1411.62 305.18 1410.55 307.12 1410.99 309.04 C 1411.43 310.95 1413.27 312.32 1415.39 312.32 C 1417.51 312.32 1419.35 310.95 1419.79 309.04 C 1420.23 307.12 1419.16 305.18 1417.22 304.39 L 1417.22 289.68 L 1423.4 295.43 C 1422.62 297.25 1423.33 299.32 1425.1 300.4 C 1426.87 301.48 1429.22 301.28 1430.73 299.91 C 1432.25 298.55 1432.53 296.39 1431.39 294.73 C 1430.26 293.08 1428.03 292.38 1426.04 293.05 L 1419.44 286.97 C 1420.08 285.44 1419.68 283.7 1418.42 282.54 C 1417.17 281.38 1415.28 281.01 1413.62 281.61 L 1406.84 275.47 Z" fill="#6a00ff" stroke="#3700cc" stroke-miterlimit="10" pointer-events="all"/><rect x="1605" y="251" width="60" height="78" fill="none" stroke="none" pointer-events="all"/><path d="M 1656.18 325.29 C 1653.26 325.29 1650.88 322.92 1650.88 320 C 1650.88 317.08 1653.26 314.7 1656.18 314.7 C 1659.1 314.7 1661.47 317.08 1661.47 320 C 1661.47 322.92 1659.1 325.29 1656.18 325.29 M 1613.82 265.3 C 1610.9 265.3 1608.53 262.92 1608.53 260 C 1608.53 257.08 1610.9 254.71 1613.82 254.71 C 1616.74 254.71 1619.12 257.08 1619.12 260 C 1619.12 262.92 1616.74 265.3 1613.82 265.3 M 1656.18 284.71 C 1659.1 284.71 1661.47 287.08 1661.47 290 C 1661.47 292.92 1659.1 295.3 1656.18 295.3 C 1653.26 295.3 1650.88 292.92 1650.88 290 C 1650.88 287.08 1653.26 284.71 1656.18 284.71 M 1656.18 311.18 C 1651.99 311.18 1648.38 314.13 1647.53 318.24 L 1638.53 318.24 C 1637.36 318.24 1636.76 317.68 1636.76 316.58 L 1636.76 291.77 L 1647.53 291.77 C 1648.38 295.87 1651.99 298.82 1656.18 298.82 C 1661.04 298.82 1665 294.87 1665 290 C 1665 285.14 1661.04 281.18 1656.18 281.18 C 1651.99 281.19 1648.38 284.13 1647.53 288.24 L 1636.76 288.24 L 1636.76 263.42 C 1636.76 260.37 1634.59 258.24 1631.47 258.24 L 1622.47 258.24 C 1621.62 254.13 1618.01 251.19 1613.82 251.18 C 1608.96 251.18 1605 255.14 1605 260 C 1605 264.87 1608.96 268.82 1613.82 268.82 C 1618.01 268.82 1621.62 265.87 1622.47 261.76 L 1631.47 261.76 C 1632.66 261.76 1633.24 262.31 1633.24 263.42 L 1633.24 316.58 C 1633.24 319.63 1635.41 321.76 1638.53 321.76 L 1647.53 321.76 C 1648.38 325.87 1651.99 328.81 1656.18 328.82 C 1661.04 328.82 1665 324.86 1665 320 C 1665 315.13 1661.04 311.18 1656.18 311.18" fill="#232f3d" stroke="none" pointer-events="all"/><rect x="1245" y="656" width="161.19" height="40" rx="5" fill="#6a00ff" stroke="#3700cc" transform="rotate(15,1325.6,676)" pointer-events="all"/><g transform="translate(-0.5 -0.5)rotate(15 1325.5950000000003 676)"><switch><foreignObject pointer-events="none" width="100%" height="100%" requiredFeatures="http://www.w3.org/TR/SVG11/feature#Extensibility" style="overflow: visible; text-align: left;"><div xmlns="http://www.w3.org/1999/xhtml" style="display: flex; align-items: unsafe center; justify-content: unsafe center; width: 153px; height: 1px; padding-top: 676px; margin-left: 1249px;"><div data-drawio-colors="color: #ffffff; " style="box-sizing: border-box; font-size: 0px; text-align: center;"><div style="display: inline-block; font-size: 16px; font-family: Helvetica; color: rgb(255, 255, 255); line-height: 1.2; pointer-events: all; white-space: normal; overflow-wrap: normal;"><font style="font-size: 21px;"><b>git checkout -b</b></font></div></div></div></foreignObject><text x="1326" y="681" fill="#ffffff" font-family="Helvetica" font-size="16px" text-anchor="middle">git checkout -b</text></switch></g><path d="M 1707.5 692.25 C 1677.5 692.25 1670 718.5 1694 723.75 C 1670 735.3 1697 760.5 1716.5 750 C 1730 771 1775 771 1790 750 C 1820 750 1820 729 1801.25 718.5 C 1820 697.5 1790 676.5 1763.75 687 C 1745 671.25 1715 671.25 1707.5 692.25 Z" fill="none" stroke="none" pointer-events="all" transform="translate(2,3)" opacity="0.25"/><path d="M 1707.5 692.25 C 1677.5 692.25 1670 718.5 1694 723.75 C 1670 735.3 1697 760.5 1716.5 750 C 1730 771 1775 771 1790 750 C 1820 750 1820 729 1801.25 718.5 C 1820 697.5 1790 676.5 1763.75 687 C 1745 671.25 1715 671.25 1707.5 692.25 Z" fill="none" stroke="none" pointer-events="all"/><path d="M 1710.47 694.27 L 1688.57 696.53 L 1682.88 697.16 L 1681.97 706.08 L 1682.87 722.83 L 1692.99 720.69 L 1686.17 731.42 L 1686.99 736.49 L 1686.45 743.07 L 1697.39 747.26 L 1705.79 749.87 L 1717.53 752.53 L 1733.16 758.65 L 1741.6 764.53 L 1761.63 767.84 L 1770.21 762.85 L 1786.72 749.54 L 1800.53 750.46 L 1816.03 741.71 L 1813.66 734.96 L 1809.91 726.74 L 1802.34 720.35 L 1807.98 714.44 L 1803.21 703.41 L 1805.96 691.33 L 1789.91 684.08 L 1775.17 682.27 L 1760.43 685.46 L 1748.44 679.2 L 1733.21 673.92 L 1714.31 678.27 L 1703.75 694.35" fill="#000000" stroke="none" pointer-events="all" transform="translate(2,3)" opacity="0.25"/><path d="M 1710.47 694.27 L 1688.57 696.53 L 1682.88 697.16 L 1681.97 706.08 L 1682.87 722.83 L 1692.99 720.69 L 1686.17 731.42 L 1686.99 736.49 L 1686.45 743.07 L 1697.39 747.26 L 1705.79 749.87 L 1717.53 752.53 L 1733.16 758.65 L 1741.6 764.53 L 1761.63 767.84 L 1770.21 762.85 L 1786.72 749.54 L 1800.53 750.46 L 1816.03 741.71 L 1813.66 734.96 L 1809.91 726.74 L 1802.34 720.35 L 1807.98 714.44 L 1803.21 703.41 L 1805.96 691.33 L 1789.91 684.08 L 1775.17 682.27 L 1760.43 685.46 L 1748.44 679.2 L 1733.21 673.92 L 1714.31 678.27 L 1703.75 694.35" fill="rgb(255, 255, 255)" stroke="none" pointer-events="all"/><path d="M 1707.5 692.25 M 1707.5 692.25 C 1675.08 691.67 1671.94 718.14 1694 723.75 M 1707.5 692.25 C 1673.99 695.9 1669.62 721.86 1694 723.75 M 1694 723.75 C 1672.84 737.26 1698.12 759.81 1716.5 750 M 1694 723.75 C 1671.56 734.95 1697.95 759.68 1716.5 750 M 1716.5 750 C 1727.49 774.44 1775.23 767.46 1790 750 M 1716.5 750 C 1728.97 770.25 1774.55 770.49 1790 750 M 1790 750 C 1820.93 750.72 1818.16 729.43 1801.25 718.5 M 1790 750 C 1820.67 749.97 1822.2 726.79 1801.25 718.5 M 1801.25 718.5 C 1818.55 698.17 1789.81 675.1 1763.75 687 M 1801.25 718.5 C 1817.92 699.17 1794.17 675.61 1763.75 687 M 1763.75 687 C 1742.74 667.38 1715.06 667.57 1707.5 692.25 M 1763.75 687 C 1743.06 668.52 1713.44 672.81 1707.5 692.25 M 1707.5 692.25 C 1707.5 692.25 1707.5 692.25 1707.5 692.25 M 1707.5 692.25 C 1707.5 692.25 1707.5 692.25 1707.5 692.25" fill="none" stroke="#000000" stroke-width="2" stroke-linejoin="round" stroke-linecap="round" stroke-miterlimit="10" pointer-events="all" transform="translate(2,3)" opacity="0.25"/><path d="M 1707.5 692.25 M 1707.5 692.25 C 1675.08 691.67 1671.94 718.14 1694 723.75 M 1707.5 692.25 C 1673.99 695.9 1669.62 721.86 1694 723.75 M 1694 723.75 C 1672.84 737.26 1698.12 759.81 1716.5 750 M 1694 723.75 C 1671.56 734.95 1697.95 759.68 1716.5 750 M 1716.5 750 C 1727.49 774.44 1775.23 767.46 1790 750 M 1716.5 750 C 1728.97 770.25 1774.55 770.49 1790 750 M 1790 750 C 1820.93 750.72 1818.16 729.43 1801.25 718.5 M 1790 750 C 1820.67 749.97 1822.2 726.79 1801.25 718.5 M 1801.25 718.5 C 1818.55 698.17 1789.81 675.1 1763.75 687 M 1801.25 718.5 C 1817.92 699.17 1794.17 675.61 1763.75 687 M 1763.75 687 C 1742.74 667.38 1715.06 667.57 1707.5 692.25 M 1763.75 687 C 1743.06 668.52 1713.44 672.81 1707.5 692.25 M 1707.5 692.25 C 1707.5 692.25 1707.5 692.25 1707.5 692.25 M 1707.5 692.25 C 1707.5 692.25 1707.5 692.25 1707.5 692.25" fill="none" stroke="rgb(0, 0, 0)" stroke-width="2" stroke-linejoin="round" stroke-linecap="round" stroke-miterlimit="10" pointer-events="all"/><g transform="translate(-0.5 -0.5)"><switch><foreignObject pointer-events="none" width="100%" height="100%" requiredFeatures="http://www.w3.org/TR/SVG11/feature#Extensibility" style="overflow: visible; text-align: left;"><div xmlns="http://www.w3.org/1999/xhtml" style="display: flex; align-items: unsafe center; justify-content: unsafe center; width: 148px; height: 1px; padding-top: 719px; margin-left: 1671px;"><div data-drawio-colors="color: rgb(0, 0, 0); " style="box-sizing: border-box; font-size: 0px; text-align: center;"><div style="display: inline-block; font-size: 16px; font-family: Helvetica; color: rgb(0, 0, 0); line-height: 1.2; pointer-events: all; white-space: normal; overflow-wrap: normal;"><b>Tag : 5.x.x</b></div></div></div></foreignObject><text x="1745" y="723" fill="rgb(0, 0, 0)" font-family="Helvetica" font-size="16px" text-anchor="middle">Tag : 5.x.x</text></switch></g><path d="M 1600 687.57 Q 1600 687.57 1674.33 706.43" fill="none" stroke="rgb(0, 0, 0)" stroke-miterlimit="10" stroke-dasharray="3 3" pointer-events="stroke"/><path d="M 1679.42 707.72 L 1671.77 709.4 L 1674.33 706.43 L 1673.49 702.61 Z" fill="rgb(0, 0, 0)" stroke="rgb(0, 0, 0)" stroke-miterlimit="10" pointer-events="all"/><rect x="1460" y="471" width="130" height="30" fill="none" stroke="none" transform="rotate(-15,1525,486)" pointer-events="all"/><g transform="translate(-0.5 -0.5)rotate(-15 1525 486)"><switch><foreignObject pointer-events="none" width="100%" height="100%" requiredFeatures="http://www.w3.org/TR/SVG11/feature#Extensibility" style="overflow: visible; text-align: left;"><div xmlns="http://www.w3.org/1999/xhtml" style="display: flex; align-items: unsafe center; justify-content: unsafe center; width: 128px; height: 1px; padding-top: 486px; margin-left: 1461px;"><div data-drawio-colors="color: rgb(0, 0, 0); " style="box-sizing: border-box; font-size: 0px; text-align: center;"><div style="display: inline-block; font-size: 16px; font-family: Helvetica; color: rgb(0, 0, 0); line-height: 1.2; pointer-events: all; white-space: normal; overflow-wrap: normal;"><font style="font-size: 21px;"><b>git   push</b></font></div></div></div></foreignObject><text x="1525" y="491" fill="rgb(0, 0, 0)" font-family="Helvetica" font-size="16px" text-anchor="middle">git   push</text></switch></g><rect x="893.1" y="1" width="865" height="110" rx="16.5" ry="16.5" fill="#f3f1f1" stroke="#172b4d" stroke-width="2" pointer-events="all"/><path d="M 910.9 0 Q 892.1 0 892.1 18.8 L 892.1 45 Q 1325.6 78 1759.1 45 L 1759.1 18.8 Q 1759.1 0 1740.3 0 Z" fill="url(#mx-gradient-ffffff-0.9-ffffff-0.1-s-0)" stroke="none" pointer-events="all"/><g transform="translate(-0.5 -0.5)"><switch><foreignObject pointer-events="none" width="100%" height="100%" requiredFeatures="http://www.w3.org/TR/SVG11/feature#Extensibility" style="overflow: visible; text-align: left;"><div xmlns="http://www.w3.org/1999/xhtml" style="display: flex; align-items: unsafe center; justify-content: unsafe center; width: 1px; height: 1px; padding-top: 56px; margin-left: 1326px;"><div data-drawio-colors="color: #ffffff; " style="box-sizing: border-box; font-size: 0px; text-align: center;"><div style="display: inline-block; font-size: 12px; font-family: Helvetica; color: rgb(255, 255, 255); line-height: 1.2; pointer-events: all; white-space: nowrap;"><font style="font-size: 42px;" face="Tahoma" color="#0d0c0c"><b style="">LIVRAISON REC</b></font></div></div></div></foreignObject><text x="1326" y="60" fill="#ffffff" font-family="Helvetica" font-size="12px" text-anchor="middle">LIVRAISON REC</text></switch></g><rect x="1640" y="881" width="1105" height="440" fill="#fff2cc" stroke="#d6b656" pointer-events="all"/><g transform="translate(-0.5 -0.5)"><switch><foreignObject pointer-events="none" width="100%" height="100%" requiredFeatures="http://www.w3.org/TR/SVG11/feature#Extensibility" style="overflow: visible; text-align: left;"><div xmlns="http://www.w3.org/1999/xhtml" style="display: flex; align-items: unsafe center; justify-content: unsafe center; width: 1103px; height: 1px; padding-top: 1101px; margin-left: 1641px;"><div data-drawio-colors="color: rgb(0, 0, 0); " style="box-sizing: border-box; font-size: 0px; text-align: center;"><div style="display: inline-block; font-size: 16px; font-family: Helvetica; color: rgb(0, 0, 0); line-height: 1.2; pointer-events: all; white-space: normal; overflow-wrap: normal;"><div style="text-align: justify; font-size: 21px;"><span style="background-color: initial;"><font style="font-size: 21px;"><b>Étape 1 :</b></font></span></div><div style="text-align: justify; font-size: 21px;"><span style="background-color: initial;"><font style="font-size: 21px;"><b><br /></b></font></span></div><font style="font-size: 21px;"><div style="text-align: justify;"><span style="background-color: initial;"> Créer une branche release ( <font color="#f02424">current release</font> ) à partir de la branche de la dernière release ( ou de la branche master).</span></div><div style="text-align: justify;"><br /></div><div style="text-align: justify;"><span style="background-color: initial;"><b>Étape 2 :</b></span></div><div style="text-align: justify;"><span style="background-color: initial;"><b><br /></b></span></div><div style="text-align: justify;"><span style="background-color: initial;"> Chaque équipe crée une nouvelle branche pour y apporter ses modifications destinées à la livraison en <b><font color="#f50f0f">PROD</font></b>. </span></div><div style="text-align: justify;"><span style="background-color: initial;">Une fois les modifications effectuées, une <font color="#f90606"><b>pull request</b></font> est soumise pour fusionner avec la branche <font color="#f31212">current release</font>. Les équipes respectives chargées de ces branches valident les pull requests, vérifiant particulièrement l'absence de régressions, surtout au niveau de la BDM.</span></div><div style="text-align: justify;"><br /></div><div style="text-align: justify;"><span style="background-color: initial;"><b>Étape 3 :</b></span></div><div style="text-align: justify;"><span style="background-color: initial;"><b><br /></b></span></div><div style="text-align: justify;"><span style="background-color: initial;"> Après l'installation en environnement de PROD, une personne effectue le push de la release sur la branche MASTER.<br />( la branche : current release devient la branche last release ).</span></div></font></div></div></div></foreignObject><text x="2193" y="1106" fill="rgb(0, 0, 0)" font-family="Helvetica" font-size="16px" text-anchor="middle">Étape 1 :...</text></switch></g><path d="M 932.89 1101 Q 932.89 1101 1015.84 967.68" fill="none" stroke="rgb(0, 0, 0)" stroke-miterlimit="10" pointer-events="stroke"/><path d="M 1019.41 961.95 L 1018.48 971.97 L 1015.84 967.68 L 1010.83 967.21 Z" fill="rgb(0, 0, 0)" stroke="rgb(0, 0, 0)" stroke-miterlimit="10" pointer-events="all"/><rect x="750" y="1101" width="260" height="170" rx="10" ry="10" fill="url(#mx-gradient-e1dbdb-1-c7f0eb-1-s-0)" stroke="rgb(0, 0, 0)" stroke-width="3" stroke-dasharray="9 9" pointer-events="all"/><path d="M 762 1099 Q 748 1099 748 1113 L 748 1169 Q 880 1220 1012 1169 L 1012 1113 Q 1012 1099 998 1099 Z" fill="url(#mx-gradient-ffffff-0.9-ffffff-0.1-s-0)" stroke="none" pointer-events="all"/><g transform="translate(-0.5 -0.5)"><switch><foreignObject pointer-events="none" width="100%" height="100%" requiredFeatures="http://www.w3.org/TR/SVG11/feature#Extensibility" style="overflow: visible; text-align: left;"><div xmlns="http://www.w3.org/1999/xhtml" style="display: flex; align-items: unsafe center; justify-content: unsafe center; width: 258px; height: 1px; padding-top: 1186px; margin-left: 751px;"><div data-drawio-colors="color: rgb(0, 0, 0); " style="box-sizing: border-box; font-size: 0px; text-align: center;"><div style="display: inline-block; font-size: 16px; font-family: Helvetica; color: rgb(0, 0, 0); line-height: 1.2; pointer-events: all; white-space: normal; overflow-wrap: normal;"><font style="font-size: 25px;">Branche release contient que les modifs qui partent en PROD</font></div></div></div></foreignObject><text x="880" y="1191" fill="rgb(0, 0, 0)" font-family="Helvetica" font-size="16px" text-anchor="middle">Branche release contient que les...</text></switch></g></g><switch><g requiredFeatures="http://www.w3.org/TR/SVG11/feature#Extensibility"/><a transform="translate(0,-5)" xlink:href="https://www.drawio.com/doc/faq/svg-export-text-problems" target="_blank"><text text-anchor="middle" font-size="10px" x="50%" y="100%">Text is not SVG - cannot display</text></a></switch></svg>